Manipulação de dados com dplyr – Curso R para Análise de Dados
…
Manipulação de dados com dplyr

Dia 1 — Tarde | 4 horas

O pipe: %>%

Atalho: Ctrl/Cmd + Shift + M. Encadeia operações da esquerda para a direita:

# Demonstração: o pipe encadeia operações
filmes %>% 
  filter(ano > 2000) %>% 
  arrange(desc(nota))

# A tibble: 2,667 × 10
   codigo_filme titulo  diretor   ano genero duracao orcamento faturamento  nota
          <dbl> <chr>   <chr>   <dbl> <chr>    <dbl>     <dbl>       <dbl> <dbl>
 1           65 The Da… Christ…  2008 Avent…     151 185000000   533316061   9  
 2          329 The Lo… Peter …  2003 Coméd…      80  94000000   377019252   8.9
 3           95 Incept… Christ…  2010 Ação       103 160000000   292568851   8.8
 4          261 The Lo… Peter …  2001 Anima…     170  93000000   313837577   8.8
 5          330 The Lo… Peter …  2002 Anima…     121  94000000   340478898   8.7
 6         3398 City o… Fernan…  2002 Ficçã…      56   3300000     7563397   8.7
 7           94 Inters… Christ…  2014 Roman…      90 165000000   187991439   8.6
 8         2182 Spirit… Hayao …  2001 Roman…      93  19000000    10049886   8.6
 9            4 The Da… Christ…  2012 Misté…      99 250000000   448130642   8.5
10          286 Django… Quenti…  2012 Coméd…      91 100000000   162804648   8.5
# ℹ 2,657 more rows
# ℹ 1 more variable: elenco_principal <chr>
…
arrange()
Ordena

summarise()
Resume

group_by()
Agrupa

filter()

# Filmes com nota ≥ 8.5
filmes %>% filter(nota >= 8.5)

# A tibble: 47 × 10
   codigo_filme titulo  diretor   ano genero duracao orcamento faturamento  nota
          <dbl> <chr>   <chr>   <dbl> <chr>    <dbl>     <dbl>       <dbl> <dbl>
 1            4 The Da… Christ…  2012 Misté…      99 250000000   448130642   8.5
 2           65 The Da… Christ…  2008 Avent…     151 185000000   533316061   9  
 3           94 Inters… Christ…  2014 Roman…      90 165000000   187991439   8.6
 4           95 Incept… Christ…  2010 Ação       103 160000000   292568851   8.8
 5          261 The Lo… Peter …  2001 Anima…     170  93000000   313837577   8.8
 6          273 Gladia… Ridley…  2000 Drama      159 103000000   187670866   8.5
 7          278 Termin… James …  1991 Terror     119 102000000   204843350   8.5
 8          286 Django… Quenti…  2012 Coméd…      91 100000000   162804648   8.5
 9          329 The Lo… Peter …  2003 Coméd…      80  94000000   377019252   8.9
10          330 The Lo… Peter …  2002 Anima…     121  94000000   340478898   8.7
# ℹ 37 more rows
# ℹ 1 more variable: elenco_principal <chr>

# Ação OU Comédia
filmes %>% filter(genero %in% c("Ação", "Comédia"))

# A tibble: 1,018 × 10
   codigo_filme titulo  diretor   ano genero duracao orcamento faturamento  nota
          <dbl> <chr>   <chr>   <dbl> <chr>    <dbl>     <dbl>       <dbl> <dbl>
 1            1 Avatar  James …  2009 Ação        81 237000000   760505847   7.9
 2            3 Spectr… Sam Me…  2015 Coméd…      88 245000000   200074175   6.8
 3           17 The Av… Joss W…  2012 Ação        53 220000000   623279547   8.1
 4           19 Men in… Barry …  2012 Ação        57 225000000   179020854   6.8
 5           29 Jurass… Colin …  2015 Ação        58 150000000   652177271   7  
 6           38 Oz the… Sam Ra…  2013 Ação        95 215000000   234903076   6.4
 7           39 The Am… Marc W…  2014 Ação        88 200000000   202853933   6.7
 8           40 TRON: … Joseph…  2010 Ação        82 170000000   172051787   6.8
 9           42 Green … Martin…  2011 Coméd…     117 200000000   116593191   5.6
10           43 Toy St… Lee Un…  2010 Coméd…      48 200000000   414984497   8.3
# ℹ 1,008 more rows
# ℹ 1 more variable: elenco_principal <chr>

select() e mutate()

filmes %>% select(titulo, ano, nota)

# A tibble: 3,875 × 3
   titulo                                      ano  nota
   <chr>                                     <dbl> <dbl>
 1 Avatar                                     2009   7.9
 2 Pirates of the Caribbean: At World's End   2007   7.1
 3 Spectre                                    2015   6.8
 4 The Dark Knight Rises                      2012   8.5
 5 John Carter                                2012   6.6
 6 Spider-Man 3                               2007   6.2
 7 Tangled                                    2010   7.8
 8 Avengers: Age of Ultron                    2015   7.5
 9 Harry Potter and the Half-Blood Prince     2009   7.5
10 Batman v Superman: Dawn of Justice         2016   6.9
# ℹ 3,865 more rows
…
