…
### Exercício 3

Calcule a nota média e o número de filmes por gênero. Ordene da maior para a menor nota média.

**Resultado esperado:**
```
# A tibble: 19 × 3
   genero          nota_media     n
   <chr>                <dbl> <int>
 1 Documentário          6.84    70
 2 Guerra                6.75    19
 3 História              6.73    21
 4 Drama                 6.56   964
 5 Musical               6.56    13
 6 Biografia             6.54    90
 7 Crime                 6.49   308
 8 Mistério              6.43    90
 9 Esporte               6.42     5
10 Aventura              6.42    80
# … with 9 more rows
```
…
