…
### Exercício 2

Usando `slice_max()`, encontre as 3 maiores árvores (por DAP) de cada espécie.

**Resultado esperado:**
```
# A tibble: 9 × 3
  especie    dap altura
  <chr>    <dbl>  <dbl>
1 Eucalipto  42.3   32.1
2 Eucalipto  41.8   31.5
3 Eucalipto  40.2   30.8
4 Pinus      38.7   28.4
5 Pinus      37.2   27.8
6 Pinus      36.5   27.1
# … with 3 more rows
```
…
