…
(@) **Reformule a base de dados seguindo os conceitos do tidy data.**


```
#> # A tibble: 2,100 x 5
#>    Tratamento Individuo Coleta Local   Galhas
#>    <chr>          <dbl> <chr>  <chr>    <dbl>
#>  1 Actara d1          1 1      Peciolo      1
#>  2 Actara d1          2 1      Peciolo     NA
#>  3 Actara d1          3 1      Peciolo     NA
#>  4 Actara d1          4 1      Peciolo     NA
#>  5 Actara d1          5 1      Peciolo     NA
#>  6 Actara d1          6 1      Peciolo     NA
#>  7 Actara d1          7 1      Peciolo     NA
#>  8 Actara d1          8 1      Peciolo     NA
#>  9 Actara d1          9 1      Peciolo     NA
#> 10 Actara d1         10 1      Peciolo     NA
#> # ... with 2,090 more rows
```
…
(@) **Reformule o objeto `voto` seguindo os conceitos do tidy data. Salve a nova base em um objeto chamado `voto_tidy`.**


```
#> # A tibble: 405 x 6
#>    ANO_ELEICAO NUM_TURNO NUMERO_CANDIDATO DESCRICAO_CARGO estado   voto
#>          <dbl>     <dbl>            <dbl> <chr>           <chr>   <dbl>
#>  1        2018         1               12 PRESIDENTE      AC      21809
#>  2        2018         1               13 PRESIDENTE      AC      78170
#>  3        2018         1               15 PRESIDENTE      AC       6458
#>  4        2018         1               16 PRESIDENTE      AC         80
#>  5        2018         1               17 PRESIDENTE      AC     262508
#>  6        2018         1               18 PRESIDENTE      AC      10557
#>  7        2018         1               19 PRESIDENTE      AC       1531
#>  8        2018         1               27 PRESIDENTE      AC        241
#>  9        2018         1               30 PRESIDENTE      AC       1990
#> 10        2018         1               45 PRESIDENTE      AC      33115
#> # ... with 395 more rows
```
…
