Iteração | R para análise de dados
…
dados_pred %>% 
  ggplot(aes(CAP_cm)) +
    geom_point(aes(y = H_m), color = "cadetblue") +
    geom_point(aes(y = hpred), color = "red") +
    facet_wrap(~Esp) +
    theme_bw()

Exercícios

A partir do data frame gapminder crie o objeto gap_nested com os dados aninhados em função de continent e country.

Dica: nest.

#> # A tibble: 142 x 3
#>    continent country     data             
#>    <fct>     <fct>       <list>           
#>  1 Asia      Afghanistan <tibble [12 x 4]>
#>  2 Europe    Albania     <tibble [12 x 4]>
#>  3 Africa    Algeria     <tibble [12 x 4]>
#>  4 Africa    Angola      <tibble [12 x 4]>
#>  5 Americas  Argentina   <tibble [12 x 4]>
#>  6 Oceania   Australia   <tibble [12 x 4]>
#>  7 Europe    Austria     <tibble [12 x 4]>
#>  8 Asia      Bahrain     <tibble [12 x 4]>
#>  9 Asia      Bangladesh  <tibble [12 x 4]>
#> 10 Europe    Belgium     <tibble [12 x 4]>
#> # ... with 132 more rows

Com o objeto gap_nested ajuste um modelo linear com a formula lifeExp ~ year e calcule as estatísticas do modelos ajustados

Dica: map, lm, tidy.

#> # A tibble: 142 x 5
#>    continent country     data              fit    tidy            
#>    <fct>     <fct>       <list>            <list> <list>          
#>  1 Asia      Afghanistan <tibble [12 x 4]> <lm>   <tibble [2 x 5]>
#>  2 Europe    Albania     <tibble [12 x 4]> <lm>   <tibble [2 x 5]>
#>  3 Africa    Algeria     <tibble [12 x 4]> <lm>   <tibble [2 x 5]>
#>  4 Africa    Angola      <tibble [12 x 4]> <lm>   <tibble [2 x 5]>
#>  5 Americas  Argentina   <tibble [12 x 4]> <lm>   <tibble [2 x 5]>
#>  6 Oceania   Australia   <tibble [12 x 4]> <lm>   <tibble [2 x 5]>
#>  7 Europe    Austria     <tibble [12 x 4]> <lm>   <tibble [2 x 5]>
#>  8 Asia      Bahrain     <tibble [12 x 4]> <lm>   <tibble [2 x 5]>
#>  9 Asia      Bangladesh  <tibble [12 x 4]> <lm>   <tibble [2 x 5]>
#> 10 Europe    Belgium     <tibble [12 x 4]> <lm>   <tibble [2 x 5]>
#> # ... with 132 more rows

Salve no objeto gap_coef o desaninhe os dados.

Dica: unnest.

#> # A tibble: 284 x 7
#>    continent country     term         estimate std.error statistic  p.value
#>    <fct>     <fct>       <chr>           <dbl>     <dbl>     <dbl>    <dbl>
#>  1 Asia      Afghanistan (Intercept)  -508.     40.5        -12.5  1.93e- 7
#>  2 Asia      Afghanistan year            0.275   0.0205      13.5  9.84e- 8
#>  3 Europe    Albania     (Intercept)  -594.     65.7         -9.05 3.94e- 6
#>  4 Europe    Albania     year            0.335   0.0332      10.1  1.46e- 6
#>  5 Africa    Algeria     (Intercept) -1068.     43.8        -24.4  3.07e-10
#>  6 Africa    Algeria     year            0.569   0.0221      25.7  1.81e-10
#>  7 Africa    Angola      (Intercept)  -377.     46.6         -8.08 1.08e- 5
#>  8 Africa    Angola      year            0.209   0.0235       8.90 4.59e- 6
#>  9 Americas  Argentina   (Intercept)  -390.      9.68       -40.3  2.14e-12
#> 10 Americas  Argentina   year            0.232   0.00489     47.4  4.22e-13
#> # ... with 274 more rows
…
Reformate a tabela seguindo os conceitos do tidy data.

#> # A tibble: 15,576 x 6
#>    `Country Name` `Country Code` `Indicator Name` `Indicator Code` ano  
#>    <chr>          <chr>          <chr>            <chr>            <chr>
#>  1 Aruba          ABW            Proportion of s~ SG.GEN.PARL.ZS   1960 
#>  2 Afghanistan    AFG            Proportion of s~ SG.GEN.PARL.ZS   1960 
#>  3 Angola         AGO            Proportion of s~ SG.GEN.PARL.ZS   1960 
#>  4 Albania        ALB            Proportion of s~ SG.GEN.PARL.ZS   1960 
#>  5 Andorra        AND            Proportion of s~ SG.GEN.PARL.ZS   1960 
#>  6 Arab World     ARB            Proportion of s~ SG.GEN.PARL.ZS   1960 
#>  7 United Arab E~ ARE            Proportion of s~ SG.GEN.PARL.ZS   1960 
#>  8 Argentina      ARG            Proportion of s~ SG.GEN.PARL.ZS   1960 
#>  9 Armenia        ARM            Proportion of s~ SG.GEN.PARL.ZS   1960 
#> 10 American Samoa ASM            Proportion of s~ SG.GEN.PARL.ZS   1960 
#> # ... with 15,566 more rows, and 1 more variable: percentual <dbl>
…
