Strings, fatores e datas | R para análise de dados
…
Crie um novo data frame chamado nobel_age. Neste novo data frame filtre apenas os prêmios individuais em laureate_type e em seguida crie uma coluna chamada prize_date considerando o dia 1 de dezembro do ano em que o premio foi entregue. Em seguida calcule a idade em que o ganhador recebeu o prêmio e armazene em uma variável chamada age neste mesmo data frame.

Dicas: str_glue, ymd, time_length.

#> # A tibble: 939 x 20
#>    prize_year category prize motivation prize_share laureate_id
#>         <dbl> <chr>    <chr> <chr>      <chr>             <dbl>
#>  1       1901 Chemist~ The ~ "\"in rec~ 1/1                 160
#>  2       1901 Literat~ The ~ "\"in spe~ 1/1                 569
#>  3       1901 Medicine The ~ "\"for hi~ 1/1                 293
#>  4       1901 Peace    The ~ <NA>       1/2                 462
#>  5       1901 Peace    The ~ <NA>       1/2                 463
#>  6       1901 Physics  The ~ "\"in rec~ 1/1                   1
#>  7       1902 Chemist~ The ~ "\"in rec~ 1/1                 161
#>  8       1902 Literat~ The ~ "\"the gr~ 1/1                 571
#>  9       1902 Medicine The ~ "\"for hi~ 1/1                 294
#> 10       1902 Peace    The ~ <NA>       1/2                 464
#> # ... with 929 more rows, and 14 more variables: laureate_type <chr>,
#> #   full_name <chr>, birth_date <date>, birth_city <chr>,
#> #   birth_country <chr>, gender <chr>, organization_name <chr>,
#> #   organization_city <chr>, organization_country <chr>,
#> #   death_date <date>, death_city <chr>, death_country <chr>,
#> #   prize_date <date>, age <dbl>
…
