Dia 1 — Tarde – Curso R para Análise de Dados
…
# A tibble: 4 × 10
  codigo_filme titulo   diretor   ano genero duracao orcamento faturamento  nota
         <dbl> <chr>    <chr>   <dbl> <chr>    <dbl>     <dbl>       <dbl> <dbl>
1           65 The Dar… Christ…  2008 Avent…     151 185000000   533316061   9  
2         1807 The Sha… Frank …  1994 Fanta…     104  25000000    28341469   9.3
3         2563 The God… Franci…  1974 Coméd…      45  13000000    57300000   9  
4         3035 The God… Franci…  1972 Crime      131   6000000   134821952   9.2
# ℹ 1 more variable: elenco_principal <chr>

# Filmes de ação com nota acima de 8.0
filmes %>% 
  filter(genero == "Ação", nota > 8.0)

# A tibble: 21 × 10
   codigo_filme titulo  diretor   ano genero duracao orcamento faturamento  nota
          <dbl> <chr>   <chr>   <dbl> <chr>    <dbl>     <dbl>       <dbl> <dbl>
 1           17 The Av… Joss W…  2012 Ação        53 220000000   623279547   8.1
 2           95 Incept… Christ…  2010 Ação       103 160000000   292568851   8.8
 3          564 Inglou… Quenti…  2009 Ação       108  75000000   120523073   8.3
 4          776 Deadpo… Tim Mi…  2016 Ação       123  58000000   363024263   8.1
 5         1026 Prison… Denis …  2013 Ação       101  46000000    60962878   8.1
 6         1232 Amélie  Jean-P…  2001 Ação        55  77000000    33201661   8.4
 7         1341 L.A. C… Curtis…  1997 Ação        89  35000000    64604977   8.3
 8         1775 Goodfe… Martin…  1990 Ação       118  25000000    46836394   8.7
 9         1778 Scarfa… Brian …  1983 Ação        96  25000000    44700000   8.3
10         2034 Spotli… Tom Mc…  2015 Ação        96  20000000    44988180   8.1
# ℹ 11 more rows
# ℹ 1 more variable: elenco_principal <chr>

# Filmes de 2010 ou mais recentes, com orçamento acima de 100 milhões
filmes %>% 
  filter(ano >= 2010, orcamento > 100000000)

# A tibble: 162 × 10
   codigo_filme titulo  diretor   ano genero duracao orcamento faturamento  nota
          <dbl> <chr>   <chr>   <dbl> <chr>    <dbl>     <dbl>       <dbl> <dbl>
 1            3 Spectr… Sam Me…  2015 Coméd…      88 245000000   200074175   6.8
 2            4 The Da… Christ…  2012 Misté…      99 250000000   448130642   8.5
 3            5 John C… Andrew…  2012 Fanta…      92 263700000    73058679   6.6
 4            7 Tangle… Nathan…  2010 Terror      39 260000000   200807262   7.8
 5            8 Avenge… Joss W…  2015 Misté…     111 250000000   458991599   7.5
 6           10 Batman… Zack S…  2016 Terror      89 250000000   330249062   6.9
 7           14 The Lo… Gore V…  2013 Ficçã…     129 215000000    89289910   6.5
 8           15 Man of… Zack S…  2013 Drama      123 225000000   291021565   7.2
 9           17 The Av… Joss W…  2012 Ação        53 220000000   623279547   8.1
10           18 Pirate… Rob Ma…  2011 Drama      113 250000000   241063875   6.7
# ℹ 152 more rows
# ℹ 1 more variable: elenco_principal <chr>
…
# A tibble: 2 × 2
  genero      n
  <chr>   <int>
1 Drama     719
2 Comédia   452

# Filmes com nota >= 8.0 E ano > 2010
filmes %>% 
  filter(nota >= 8.0, ano > 2010)

# A tibble: 36 × 10
   codigo_filme titulo  diretor   ano genero duracao orcamento faturamento  nota
          <dbl> <chr>   <chr>   <dbl> <chr>    <dbl>     <dbl>       <dbl> <dbl>
 1            4 The Da… Christ…  2012 Misté…      99 250000000   448130642   8.5
 2           17 The Av… Joss W…  2012 Ação        53 220000000   623279547   8.1
 3           47 X-Men:… Bryan …  2014 Ação       126 200000000   233914986   8  
 4           77 Inside… Pete D…  2015 Coméd…     113 175000000   356454367   8.3
 5           93 Guardi… James …  2014 Coméd…     118 170000000   333130696   8.1
 6           94 Inters… Christ…  2014 Roman…      90 165000000   187991439   8.6
 7          125 Mad Ma… George…  2015 Coméd…      61 150000000   153629485   8.1
 8          175 The Re… Alejan…  2015 Roman…      91 135000000   183635922   8.1
 9          216 Life o… Ang Lee  2012 Thril…     123 120000000   124976634   8  
10          269 The Ma… Ridley…  2015 Drama       78 108000000   228430993   8.1
# ℹ 26 more rows
# ℹ 1 more variable: elenco_principal <chr>

select() — Selecionar colunas

# Selecionar colunas por nome
filmes %>% 
  select(titulo, ano, nota)

# A tibble: 3,875 × 3
   titulo                                      ano  nota
   <chr>                                     <dbl> <dbl>
 1 Avatar                                     2009   7.9
 2 Pirates of the Caribbean: At World's End   2007   7.1
 3 Spectre                                    2015   6.8
 4 The Dark Knight Rises                      2012   8.5
 5 John Carter                                2012   6.6
 6 Spider-Man 3                               2007   6.2
 7 Tangled                                    2010   7.8
 8 Avengers: Age of Ultron                    2015   7.5
 9 Harry Potter and the Half-Blood Prince     2009   7.5
10 Batman v Superman: Dawn of Justice         2016   6.9
# ℹ 3,865 more rows

# Selecionar um intervalo de colunas
filmes %>% 
  select(titulo:nota)

# A tibble: 3,875 × 8
   titulo               diretor   ano genero duracao orcamento faturamento  nota
   <chr>                <chr>   <dbl> <chr>    <dbl>     <dbl>       <dbl> <dbl>
 1 Avatar               James …  2009 Ação        81 237000000   760505847   7.9
 2 Pirates of the Cari… Gore V…  2007 Avent…     126 300000000   309404152   7.1
 3 Spectre              Sam Me…  2015 Coméd…      88 245000000   200074175   6.8
 4 The Dark Knight Ris… Christ…  2012 Misté…      99 250000000   448130642   8.5
 5 John Carter          Andrew…  2012 Fanta…      92 263700000    73058679   6.6
 6 Spider-Man 3         Sam Ra…  2007 Drama       95 258000000   336530303   6.2
 7 Tangled              Nathan…  2010 Terror      39 260000000   200807262   7.8
 8 Avengers: Age of Ul… Joss W…  2015 Misté…     111 250000000   458991599   7.5
 9 Harry Potter and th… David …  2009 Ficçã…      82 250000000   301956980   7.5
10 Batman v Superman: … Zack S…  2016 Terror      89 250000000   330249062   6.9
# ℹ 3,865 more rows

# Remover colunas com -
filmes %>% 
  select(-codigo_filme, -diretor)

# A tibble: 3,875 × 8
   titulo        ano genero duracao orcamento faturamento  nota elenco_principal
   <chr>       <dbl> <chr>    <dbl>     <dbl>       <dbl> <dbl> <chr>           
 1 Avatar       2009 Ação        81 237000000   760505847   7.9 Viola Davis     
 2 Pirates of…  2007 Avent…     126 300000000   309404152   7.1 Cate Blanchett  
 3 Spectre      2015 Coméd…      88 245000000   200074175   6.8 Natalie Portman 
 4 The Dark K…  2012 Misté…      99 250000000   448130642   8.5 Cate Blanchett  
 5 John Carte…  2012 Fanta…      92 263700000    73058679   6.6 Tom Hanks       
 6 Spider-Man…  2007 Drama       95 258000000   336530303   6.2 Viola Davis     
 7 Tangled      2010 Terror      39 260000000   200807262   7.8 Viola Davis     
 8 Avengers: …  2015 Misté…     111 250000000   458991599   7.5 Robert De Niro  
 9 Harry Pott…  2009 Ficçã…      82 250000000   301956980   7.5 Natalie Portman 
10 Batman v S…  2016 Terror      89 250000000   330249062   6.9 Tom Hanks       
# ℹ 3,865 more rows

# Selecionar por padrão no nome
filmes %>% 
  select(starts_with("cod"))

# A tibble: 3,875 × 1
   codigo_filme
          <dbl>
 1            1
 2            2
 3            3
 4            4
 5            5
 6            6
 7            7
 8            8
 9            9
10           10
# ℹ 3,865 more rows

filmes %>% 
  select(contains("mento"))

# A tibble: 3,875 × 2
   orcamento faturamento
       <dbl>       <dbl>
 1 237000000   760505847
 2 300000000   309404152
 3 245000000   200074175
 4 250000000   448130642
 5 263700000    73058679
 6 258000000   336530303
 7 260000000   200807262
 8 250000000   458991599
 9 250000000   301956980
10 250000000   330249062
# ℹ 3,865 more rows

mutate() — Criar ou modificar colunas

A função mutate() calcula novas colunas a partir das existentes:

filmes %>% 
  mutate(
    lucro = faturamento - orcamento,
    lucro_milhoes = lucro / 1000000,
    duracao_horas = duracao / 60
  ) %>% 
  select(titulo, orcamento, faturamento, lucro_milhoes, duracao_horas)

# A tibble: 3,875 × 5
   titulo                      orcamento faturamento lucro_milhoes duracao_horas
   <chr>                           <dbl>       <dbl>         <dbl>         <dbl>
 1 Avatar                      237000000   760505847        524.            1.35
 2 Pirates of the Caribbean: … 300000000   309404152          9.40          2.1 
 3 Spectre                     245000000   200074175        -44.9           1.47
 4 The Dark Knight Rises       250000000   448130642        198.            1.65
 5 John Carter                 263700000    73058679       -191.            1.53
 6 Spider-Man 3                258000000   336530303         78.5           1.58
 7 Tangled                     260000000   200807262        -59.2           0.65
 8 Avengers: Age of Ultron     250000000   458991599        209.            1.85
 9 Harry Potter and the Half-… 250000000   301956980         52.0           1.37
10 Batman v Superman: Dawn of… 250000000   330249062         80.2           1.48
# ℹ 3,865 more rows
…
Exercício 3

Calcule a nota média e o número de filmes por gênero. Ordene da maior para a menor nota média.

Resultado esperado:

# A tibble: 19 × 3
   genero          nota_media     n
   <chr>                <dbl> <int>
 1 Documentário          6.84    70
 2 Guerra                6.75    19
 3 História              6.73    21
 4 Drama                 6.56   964
 5 Musical               6.56    13
 6 Biografia             6.54    90
 7 Crime                 6.49   308
 8 Mistério              6.43    90
 9 Esporte               6.42     5
10 Aventura              6.42    80
# … with 9 more rows
…
