Dia 2 — Manhã – Curso R para Análise de Dados
…
Operações com janelas

Operações de janela permitem comparar cada linha com outras do mesmo grupo, sem perder os dados originais.

Top N por grupo

# Top 3 filmes por gênero (por nota)
filmes %>% 
  group_by(genero) %>% 
  slice_max(nota, n = 3) %>% 
  select(genero, titulo, nota) %>% 
  arrange(genero, desc(nota))

# A tibble: 64 × 3
# Groups:   genero [19]
   genero   titulo                                              nota
   <chr>    <chr>                                              <dbl>
 1 Animação Schindler's List                                     8.9
 2 Animação The Lord of the Rings: The Fellowship of the Ring    8.8
 3 Animação The Lord of the Rings: The Two Towers                8.7
 4 Animação One Flew Over the Cuckoo's Nest                      8.7
 5 Aventura The Dark Knight                                      9  
 6 Aventura Braveheart                                           8.4
 7 Aventura A Separation                                         8.4
 8 Ação     Inception                                            8.8
 9 Ação     Goodfellas                                           8.7
10 Ação     The Usual Suspects                                   8.6
# ℹ 54 more rows

# 5 árvores com maior DAP em cada parcela (dado florestal)
inv_florestal %>% 
  group_by(parcela) %>% 
  slice_max(dap, n = 5) %>% 
  select(parcela, especie, dap, altura)

# A tibble: 150 × 4
# Groups:   parcela [30]
   parcela especie                dap altura
     <dbl> <chr>                <dbl>  <dbl>
 1       1 Eucalyptus Grandis    37.2   54.2
 2       1 Pinus Taeda           33.8   54.4
 3       1 Eucalyptus Urophylla  32.6   52.1
 4       1 Eucalyptus Grandis    31     52.4
 5       1 Eucalyptus Grandis    30.9   50.7
 6       2 Eucalyptus Grandis    36.9   56.5
 7       2 Eucalyptus Grandis    34.9   56.5
 8       2 Eucalyptus Grandis    34     54.3
 9       2 Eucalyptus Grandis    32.7   51.2
10       2 Eucalyptus Grandis    30.4   51.5
# ℹ 140 more rows

Valores defasados: lag() e lead()

# Comparar faturamento entre filmes consecutivos do mesmo diretor
filmes %>% 
  group_by(diretor) %>% 
  arrange(ano) %>% 
  mutate(
    faturamento_anterior = lag(faturamento),
    variacao = faturamento - faturamento_anterior
  ) %>% 
  select(diretor, ano, titulo, faturamento, faturamento_anterior, variacao) %>% 
  filter(!is.na(variacao))

# A tibble: 2,130 × 6
# Groups:   diretor [735]
   diretor                ano titulo   faturamento faturamento_anterior variacao
   <chr>                <dbl> <chr>          <dbl>                <dbl>    <dbl>
 1 Victor Fleming        1939 The Wiz…    22202612            198655278  -1.76e8
 2 David Lean            1962 Lawrenc…     6000000             27200000  -2.12e7
 3 Terence Young         1963 From Ru…    24800000             16067035   8.73e6
 4 David Lean            1965 Doctor …   111722000              6000000   1.06e8
 5 Terence Young         1965 Thunder…    63600000             24800000   3.88e7
 6 Sergio Leone          1966 The Goo…     6100000              3500000   2.6 e6
 7 Guy Hamilton          1971 Diamond…    43800000             51100000  -7.3 e6
 8 Guy Hamilton          1973 Live an…    35400000             43800000  -8.40e6
 9 George Roy Hill       1973 The Sti…   159600000            102308900   5.73e7
10 Francis Ford Coppola  1974 The God…    57300000            134821952  -7.75e7
# ℹ 2,120 more rows

Operações cumulativas

# Soma cumulativa de faturamento por ano
filmes %>% 
  group_by(ano) %>% 
  arrange(faturamento) %>% 
  mutate(
    faturamento_cumulativo = cumsum(faturamento)
  ) %>% 
  select(ano, titulo, faturamento, faturamento_cumulativo)

# A tibble: 3,875 × 4
# Groups:   ano [75]
     ano titulo                            faturamento faturamento_cumulativo
   <dbl> <chr>                                   <dbl>                  <dbl>
 1  2014 Skin Trade                                162                    162
 2  2001 The Jimmy Show                            703                    703
 3  2006 In Her Line of Fire                       721                    721
 4  2006 The Trials of Darryl Hunt                1111                   1832
 5  2012 Detention of the Dead                    1332                   1332
 6  2012 Eddie: The Sleepwalking Cannibal         1521                   2853
 7  2011 The Harvest/La Cosecha                   2245                   2245
 8  2012 The Ghastly Love of Johnny X             2436                   5289
 9  2014 Locker 13                                2468                   2630
10  2003 I Love Your Work                         2580                   2580
# ℹ 3,865 more rows

# Volume acumulado por parcela (dado florestal)
inv_florestal %>% 
  group_by(parcela) %>% 
  mutate(volume_cumulativo = cumsum(volume)) %>% 
  select(parcela, especie, volume, volume_cumulativo)

# A tibble: 1,131 × 4
# Groups:   parcela [30]
   parcela especie            volume volume_cumulativo
     <dbl> <chr>               <dbl>             <dbl>
 1       1 Eucalyptus Grandis  0.876             0.876
 2       1 Pinus Taeda         0.699             1.57 
 3       1 Eucalyptus Grandis  1.24              2.81 
 4       1 Pinus Taeda         0.217             3.03 
 5       1 Eucalyptus Grandis  0.746             3.77 
 6       1 Eucalyptus Grandis  0.596             4.37 
 7       1 Pinus Taeda         1.02              5.39 
 8       1 Eucalyptus Grandis  1.56              6.95 
 9       1 Eucalyptus Grandis  1.11              8.06 
10       1 Pinus Taeda         1.57              9.62 
# ℹ 1,121 more rows
…
# Agora podemos calcular volume por hectare!
inv_completo %>% 
  group_by(parcela, idade, sitio) %>% 
  summarise(
    volume_total = sum(volume),
    area_ha = first(area_parcela) / 10000,
    volume_ha = volume_total / area_ha
  ) %>% 
  arrange(desc(volume_ha))

# A tibble: 30 × 6
# Groups:   parcela, idade [30]
   parcela idade sitio volume_total area_ha volume_ha
     <dbl> <dbl> <chr>        <dbl>   <dbl>     <dbl>
 1      22     5 Ruim          50.4    0.06      839.
 2      18     5 Médio         49.7    0.06      828.
 3      13    11 Médio         44.4    0.06      740.
 4       5    11 Médio         43.0    0.06      717.
 5       6     8 Médio         42.2    0.06      704.
 6      11    12 Médio         41.9    0.06      698.
 7      17     5 Médio         41.7    0.06      695.
 8       2     9 Bom           40.1    0.06      668.
 9      25     9 Médio         39.5    0.06      658.
10       4     6 Bom           39.1    0.06      652.
# ℹ 20 more rows
…
# A tibble: 3 × 2
  classe_dap     n
  <chr>      <int>
1 Grossa        96
2 Média        401
3 Fina         495

Exercício 2

Usando slice_max(), encontre as 3 maiores árvores (por DAP) de cada espécie.

Resultado esperado:

# A tibble: 9 × 3
  especie    dap altura
  <chr>    <dbl>  <dbl>
1 Eucalipto  42.3   32.1
2 Eucalipto  41.8   31.5
3 Eucalipto  40.2   30.8
4 Pinus      38.7   28.4
5 Pinus      37.2   27.8
6 Pinus      36.5   27.1
# … with 3 more rows
…
