Dia 3 — Tarde – Curso R para Análise de Dados
…
pivot_wider() — longo → largo

# Tabela-resumo: volume por parcela × espécie
inv_florestal %>% 
  group_by(parcela, especie) %>% 
  summarise(volume_total = sum(volume), .groups = "drop") %>% 
  pivot_wider(
    names_from = especie,
    values_from = volume_total,
    values_fill = 0
  )

# A tibble: 30 × 4
   parcela `Eucalyptus Grandis` `Eucalyptus Urophylla` `Pinus Taeda`
     <dbl>                <dbl>                  <dbl>         <dbl>
 1       1                 19.8                  4.33          12.6 
 2       2                 26.9                  8.17           5.08
 3       3                 26.3                  1.24           9.81
 4       4                 26.8                  2.00          10.3 
 5       5                 28.9                  3.24          10.9 
 6       6                 27.2                  2.73          12.2 
 7       7                 31.1                  2.22           5.00
 8       8                 13.3                  0.548          2.44
 9       9                 26.5                  1.98           3.95
10      10                 16.5                  2.28           5.01
# ℹ 20 more rows
…
# A tibble: 1 × 1
  codigo
  <chr> 
1 T1-P1 

Preencher combinações e valores ausentes

# complete() — garante todas as combinações
inv_florestal %>% 
  count(parcela, especie) %>% 
  complete(parcela, especie, fill = list(n = 0))

# A tibble: 90 × 3
   parcela especie                  n
     <dbl> <chr>                <int>
 1       1 Eucalyptus Grandis      21
 2       1 Eucalyptus Urophylla     4
 3       1 Pinus Taeda             15
 4       2 Eucalyptus Grandis      23
 5       2 Eucalyptus Urophylla     9
 6       2 Pinus Taeda             10
 7       3 Eucalyptus Grandis      26
 8       3 Eucalyptus Urophylla     2
 9       3 Pinus Taeda             19
10       4 Eucalyptus Grandis      26
# ℹ 80 more rows

Importação de múltiplos arquivos

Múltiplas abas de um Excel

# Listar abas
read_csv("../data/talhoes.csv")

# A tibble: 150 × 4
   talhao   parcela volume_m3 area_ha
   <chr>      <dbl>     <dbl>   <dbl>
 1 Talhão_1      23      143.    2.04
 2 Talhão_1      29      121.    3.01
 3 Talhão_1      18      155.    1.81
 4 Talhão_1       9      209.    2.24
 5 Talhão_1      24      280     3.3 
 6 Talhão_1       5      226.    1.87
 7 Talhão_1      14      218.    3.22
 8 Talhão_1      20      222.    2.96
 9 Talhão_1      10      254.    2.8 
10 Talhão_1      11      230.    1.86
# ℹ 140 more rows

# Importar todas as abas e combinar
talhoes <- read_csv("../data/talhoes.csv")
talhoes

# A tibble: 150 × 4
   talhao   parcela volume_m3 area_ha
   <chr>      <dbl>     <dbl>   <dbl>
 1 Talhão_1      23      143.    2.04
 2 Talhão_1      29      121.    3.01
 3 Talhão_1      18      155.    1.81
 4 Talhão_1       9      209.    2.24
 5 Talhão_1      24      280     3.3 
 6 Talhão_1       5      226.    1.87
 7 Talhão_1      14      218.    3.22
 8 Talhão_1      20      222.    2.96
 9 Talhão_1      10      254.    2.8 
10 Talhão_1      11      230.    1.86
# ℹ 140 more rows
…
# A tibble: 6 × 2
  coluna   n_na
  <chr>   <int>
1 parcela     0
2 arvore      0
3 especie     0
4 dap         0
5 altura      0
6 volume      0

# Remover linhas com NA
inv_florestal %>% drop_na(dap, altura)

# A tibble: 1,131 × 6
   parcela arvore especie              dap altura volume
     <dbl>  <dbl> <chr>              <dbl>  <dbl>  <dbl>
 1       1      1 Eucalyptus Grandis  21.7   46    0.876
 2       1      2 Pinus Taeda         20.5   44    0.699
 3       1      3 Eucalyptus Grandis  26.2   51.1  1.24 
 4       1      4 Pinus Taeda         12.6   38.7  0.217
 5       1      5 Eucalyptus Grandis  19.5   49.8  0.746
 6       1      6 Eucalyptus Grandis  17.9   44.3  0.596
 7       1      7 Pinus Taeda         23.5   49.8  1.02 
 8       1      8 Eucalyptus Grandis  27     52.9  1.56 
 9       1      9 Eucalyptus Grandis  24.5   48.9  1.11 
10       1     10 Pinus Taeda         27.5   50.2  1.57 
# ℹ 1,121 more rows

# Substituir NA por valor
inv_florestal %>% replace_na(list(altura = 0))

# A tibble: 1,131 × 6
   parcela arvore especie              dap altura volume
     <dbl>  <dbl> <chr>              <dbl>  <dbl>  <dbl>
 1       1      1 Eucalyptus Grandis  21.7   46    0.876
 2       1      2 Pinus Taeda         20.5   44    0.699
 3       1      3 Eucalyptus Grandis  26.2   51.1  1.24 
 4       1      4 Pinus Taeda         12.6   38.7  0.217
 5       1      5 Eucalyptus Grandis  19.5   49.8  0.746
 6       1      6 Eucalyptus Grandis  17.9   44.3  0.596
 7       1      7 Pinus Taeda         23.5   49.8  1.02 
 8       1      8 Eucalyptus Grandis  27     52.9  1.56 
 9       1      9 Eucalyptus Grandis  24.5   48.9  1.11 
10       1     10 Pinus Taeda         27.5   50.2  1.57 
# ℹ 1,121 more rows
…
